{
  "page": 1,
  "total_results": 10000,
  "total_pages": 500,
  "results": [
    {
      "popularity": 272.59,
      "vote_count": 392,
      "video": false,
      "poster_path": "/s8qRIwA0zDPbnRekeU0rDwWE7q7.jpg",
      "id": 454626,
      "adult": false,
      "backdrop_path": "/qonBhlm0UjuKX2sH7e73pnG0454.jpg",
      "original_language": "en",
      "original_title": "Sonic the Hedgehog",
      "genre_ids": [28, 35, 878, 10751],
      "title": "Sonic the Hedgehog",
      "vote_average": 7.1,
      "overview": "Based on the global blockbuster videogame franchise from Sega, Sonic the Hedgehog tells the story of the world’s speediest hedgehog as he embraces his new home on Earth. In this live-action adventure comedy, Sonic and his new best friend team up to defend the planet from the evil genius Dr. Robotnik and his plans for world domination.",
      "release_date": "2020-02-12"
    }
  ]
}
